{
	"schemaVersion": 1,
	"id": "olli",
	"version": "${version}",
	"name": "Olli",
	"description": "Stuff for olli's server",
	"authors": [
		"ENDERZOMBI102"
	],
	"contact": {
		"repo": "https://gitlab.com/ENDERZOMBI102/olli"
	},
	"license": "MPL-2.0",
	"icon": "assets/olli/icon.png",
	"environment": "server",
	"entrypoints": {
		"main": [
			"com.enderzombi102.olli.Olli"
		]
	},
	"mixins": [
		"olli.mixins.json"
	],
	"depends": {
		"fabricloader": ">=0.14.8",
		"fabric": "*",
		"minecraft": "1.19"
	}
}
